Research Diary
…
ℹ Use `spec()` to retrieve the full column specification for this data.
ℹ Specify the column types or set `show_col_types = FALSE` to quiet this message.

# Check the first few rows of the loaded data subset
print(gene_names)

Warning: One or more parsing issues, call `problems()` on your data frame for details,
e.g.:
  dat <- vroom(...)
  problems(dat)

# A tibble: 34,105 × 1
   X1                                   
   <chr>                                
 1 hft_ctx_w21_dc1r3_r1_AAACAGCCAGCAATAA
 2 ENSG00000243485                      
 3 ENSG00000237613                      
 4 ENSG00000186092                      
 5 ENSG00000238009                      
 6 ENSG00000239945                      
 7 ENSG00000239906                      
 8 ENSG00000241860                      
 9 ENSG00000241599                      
10 ENSG00000236601                      
# ℹ 34,095 more rows
…
